{
  "$schema": "http://json-schema.org/draft-07/schema#",
  "$id": "https://gitlab.com/gitlab-org/security-products/security-report-schemas/-/raw/master/dist/coverage-fuzzing-report-format.json",
  "title": "Report format for GitLab Fuzz Testing",
  "description": "This schema provides the report format for Coverage Guided Fuzz Testing (https://docs.gitlab.com/ee/user/application_security/coverage_fuzzing).",
  "allOf": [
    { "$ref": "security-report-format.json" },
    {
      "properties": {
        "scan": {
          "properties": {
            "type": {
              "enum": ["coverage_fuzzing"]
            }
          }
        }
      }
    },
    {
      "properties": {
        "vulnerabilities": {
          "items": {
            "properties": {
              "location": {
                "description": "The location of the error",
                "$ref": "#/definitions/location"
              }
            },
            "required": [ "location" ]
          }
        }
      }
    }
  ],
  "definitions": {
    "location": {
      "type": "object",
      "description": "Identifies the vulnerability's (weakness) location.",
      "properties": {
        "crash_address": {
          "type": "string",
          "description": "The relative address in memory were the crash occurred.",
          "examples": ["0xabababab"]
        },
        "stacktrace_snippet": {
          "type": "string",
          "description": "The stack trace recorded during fuzzing resulting the crash.",
          "examples": ["func_a+0xabcd\nfunc_b+0xabcc"]
        },
        "crash_state": {
          "type": "string",
          "description": "Minimised and normalized crash stack-trace (called crash_state).",
          "examples": ["func_a+0xa\nfunc_b+0xb\nfunc_c+0xc"]
        },
        "crash_type": {
          "type": "string",
          "description": "Type of the crash.",
          "examples": ["Heap-Buffer-overflow", "Division-by-zero"]
        }
      }
    }
  }
}
